^C:\USERS\FRANK DYE\DESKTOP\PROGRAMMING PROJECTS\CSC415-HW4\WIN32\WORDCOUNT.C
/c /ZI /nologo /W3 /WX- /sdl /Od /Oy- /D WIN32 /D _DEBUG /D _CONSOLE /D _UNICODE /D UNICODE /D _CRT_SECURE_NO_WARNINGS /Gm /EHsc /RTC1 /MDd /GS /fp:precise /Zc:wchar_t /Zc:forScope /Fo"DEBUG\\" /Fd"DEBUG\VC110.PDB" /Gd /TC /analyze- C:\USERS\FRANK DYE\DESKTOP\PROGRAMMING PROJECTS\CSC415-HW4\WIN32\WORDCOUNT.C
^C:\USERS\FRANK DYE\DESKTOP\PROGRAMMING PROJECTS\CSC415-HW4\WIN32\WORDCOUNT.CPP
/c /ZI /nologo /W3 /WX- /sdl /Od /Oy- /D WIN32 /D _DEBUG /D _CONSOLE /D _UNICODE /D UNICODE /D _CRT_SECURE_NO_WARNINGS /Gm /EHsc /RTC1 /MDd /GS /fp:precise /Zc:wchar_t /Zc:forScope /Fo"DEBUG\\" /Fd"DEBUG\VC110.PDB" /Gd /TP /analyze- C:\USERS\FRANK DYE\DESKTOP\PROGRAMMING PROJECTS\CSC415-HW4\WIN32\WORDCOUNT.CPP
